id_centro;nombreCentro;direccion;id_municipio;cantMesas;maximoSufragantes
1;centro1;direccion_centro1;3;2;6
2;centro2;direccion_centro2;4;2;8
3;centro3;direccion_centro3;5;2;12
4;centro4;direccion_centro4;128;1;7
5;centro5;direccion_centro5;129;2;6
6;centro6;direccion_centro6;130;2;7
7;centro7;direccion_centro7;135;2;8
8;centro8;direccion_centro8;136;2;8
9;centro9;direccion_centro9;137;2;6
10;centro10;direccion_centro10;158;1;7
11;centro11;direccion_centro11;159;2;7
12;centro12;direccion_centro12;3;2;7
13;centro13;direccion_centro13;4;2;6
14;centro14;direccion_centro14;5;1;12
15;centro15;direccion_centro15;128;2;7
16;centro16;direccion_centro16;3;2;8
17;centro17;direccion_centro17;130;2;6
18;centro18;direccion_centro18;135;1;8
19;centro19;direccion_centro19;136;1;8
20;centro20;direccion_centro20;137;1;6
